y86/DVEfiles/dve_gui.log
Chronologic VCS simulator copyright 1991-2018
Contains Synopsys proprietary information.
Compiler version O-2018.09-SP2_Full64; Runtime version O-2018.09-SP2_Full64;  Jan 21 16:18 2026
VCD+ Writer O-2018.09-SP2_Full64 Copyright (c) 1991-2018 by Synopsys Inc.
The file '/home/escaper/my_cpu/y86/inter.vpd' was opened successfully.
Time=0 | icode=0 | valE=0000000000000000 | valA=0000000000000000 | valM=0000000000000000 | error=0

=== Test 1: RMMOVL (Write to Memory) ===
Time=20 | icode=4 | valE=0000000000000010 | valA=deadbeefcafebabe | valM=0000000000000000 | error=0
RMMOVL: Write 0xdeadbeefcafebabe to address 0x0000000000000010

=== Test 2: MRMOVL (Read from Memory) ===
Time=30 | icode=5 | valE=0000000000000010 | valA=0000000000000000 | valM=deadbeefcafebabe | error=0
MRMOVL: Read from address 0x0000000000000010, value = 0xdeadbeefcafebabe
PASS: Read correct value

=== Test 3: CALL (Push return address) ===
Time=40 | icode=8 | valE=0000000000000020 | valA=0000000000000000 | valM=0000000000000000 | error=0
CALL: Push return address 0x0000000000000200 to stack at 0x0000000000000020

=== Test 4: RET (Pop return address) ===
Time=50 | icode=9 | valE=0000000000000000 | valA=0000000000000020 | valM=0000000000000200 | error=0
RET: Pop return address from 0x0000000000000020, value = 0x0000000000000200
PASS: Read correct return address

=== Test 5: PUSHL (Push value) ===
Time=60 | icode=a | valE=0000000000000030 | valA=123456789abcdef0 | valM=0000000000000000 | error=0
PUSHL: Push value 0x123456789abcdef0 to stack at 0x0000000000000030

=== Test 6: POPL (Pop value) ===
Time=70 | icode=b | valE=0000000000000000 | valA=0000000000000030 | valM=123456789abcdef0 | error=0
POPL: Pop value from 0x0000000000000030, value = 0x123456789abcdef0
PASS: Read correct value from stack

=== Test 7: NOP (No memory access) ===
Time=80 | icode=0 | valE=0000000000000000 | valA=0000000000000000 | valM=0000000000000000 | error=0
NOP: No memory access, valM = 0x0000000000000000

=== Test 8: Memory Error (Address out of bounds) ===
Time=90 | icode=5 | valE=0000000000000900 | valA=0000000000000000 | valM=0000000000000000 | error=1
Memory access to address 0x0000000000000900
PASS: Memory error detected

=== Test 9: Multiple Read/Write Operations ===
Time=100 | icode=4 | valE=0000000000000040 | valA=aaaaaaaaaaaaaaaa | valM=0000000000000000 | error=0
Time=110 | icode=4 | valE=0000000000000048 | valA=bbbbbbbbbbbbbbbb | valM=0000000000000000 | error=0
Time=120 | icode=4 | valE=0000000000000050 | valA=cccccccccccccccc | valM=0000000000000000 | error=0
Time=130 | icode=5 | valE=0000000000000040 | valA=cccccccccccccccc | valM=aaaaaaaaaaaaaaaa | error=0
Read from 0x40: 0xaaaaaaaaaaaaaaaa (expected 0xAAAAAAAAAAAAAAAA)
Time=140 | icode=5 | valE=0000000000000048 | valA=cccccccccccccccc | valM=bbbbbbbbbbbbbbbb | error=0
Read from 0x48: 0xbbbbbbbbbbbbbbbb (expected 0xBBBBBBBBBBBBBBBB)
Time=150 | icode=5 | valE=0000000000000050 | valA=cccccccccccccccc | valM=cccccccccccccccc | error=0
Read from 0x50: 0xcccccccccccccccc (expected 0xCCCCCCCCCCCCCCCC)

=== Memory Access Stage Test Complete ===
$finish called from file "memory_access_tb.v", line 216.
$finish at simulation time                  176
Simulation complete, time is 176 ps.
           V C S   S i m u l a t i o n   R e p o r t 
Time: 176 ps
CPU Time:      0.090 seconds;       Data structure size:   0.0Mb
Wed Jan 21 16:19:01 2026
