pipelined_y86/pipelined_y86_cpu.vcd
$date
	Fri Jan 23 19:05:48 2026
$end

$version
	Synopsys VCS version O-2018.09-SP2_Full64
$end

$timescale
	1ps
$end

$comment Csum: 1 ed7c3825ab2bda4e $end


$scope module pipelined_y86_cpu_tb $end
$var reg 1 ! clk $end
$var reg 1 " rst_n $end
$var wire 2 # stat [1:0] $end
$var wire 64 $ PC [63:0] $end
$var wire 4 % F_icode [3:0] $end
$var wire 4 & D_icode [3:0] $end
$var wire 4 ' E_icode [3:0] $end
$var wire 4 ( M_icode [3:0] $end
$var wire 4 ) W_icode [3:0] $end

$scope module cpu $end
$var wire 1 * clk_i $end
$var wire 1 + rst_n_i $end
$var wire 2 # stat_o [1:0] $end
$var wire 64 $ PC_o [63:0] $end
$var wire 4 % F_icode_o [3:0] $end
$var wire 4 & D_icode_o [3:0] $end
$var wire 4 ' E_icode_o [3:0] $end
$var wire 4 ( M_icode_o [3:0] $end
$var wire 4 ) W_icode_o [3:0] $end
$var wire 64 , F_PC [63:0] $end
$var wire 64 - F_predPC [63:0] $end
$var wire 64 . D_PC [63:0] $end
$var wire 4 / D_icode [3:0] $end
$var wire 4 0 D_ifun [3:0] $end
$var wire 4 1 D_rA [3:0] $end
$var wire 4 2 D_rB [3:0] $end
$var wire 64 3 D_valC [63:0] $end
$var wire 64 4 D_valP [63:0] $end
$var wire 1 5 D_instr_valid $end
$var wire 1 6 D_imem_error $end
$var wire 64 7 E_PC [63:0] $end
$var wire 4 8 E_icode [3:0] $end
$var wire 4 9 E_ifun [3:0] $end
$var wire 64 : E_valA [63:0] $end
$var wire 64 ; E_valB [63:0] $end
$var wire 64 < E_valC [63:0] $end
$var wire 64 = E_valP [63:0] $end
$var wire 4 > E_dstE [3:0] $end
$var wire 4 ? E_dstM [3:0] $end
$var wire 4 @ E_srcA [3:0] $end
$var wire 4 A E_srcB [3:0] $end
$var wire 1 B E_instr_valid $end
$var wire 1 C E_imem_error $end
$var wire 64 D M_PC [63:0] $end
$var wire 4 E M_icode [3:0] $end
$var wire 64 F M_valA [63:0] $end
$var wire 64 G M_valE [63:0] $end
$var wire 64 H M_valP [63:0] $end
$var wire 4 I M_dstE [3:0] $end
$var wire 4 J M_dstM [3:0] $end
$var wire 1 K M_Cnd $end
$var wire 1 L M_instr_valid $end
$var wire 1 M M_imem_error $end
$var wire 64 N W_PC [63:0] $end
$var wire 4 O W_icode [3:0] $end
$var wire 64 P W_valE [63:0] $end
$var wire 64 Q W_valM [63:0] $end
$var wire 4 R W_dstE [3:0] $end
$var wire 4 S W_dstM [3:0] $end
$var wire 1 T W_instr_valid $end
$var wire 1 U W_imem_error $end
$var wire 1 V W_dmem_error $end
$var wire 64 W f_PC [63:0] $end
$var wire 4 X f_icode [3:0] $end
$var wire 4 Y f_ifun [3:0] $end
$var wire 4 Z f_rA [3:0] $end
$var wire 4 [ f_rB [3:0] $end
$var wire 64 \ f_valC [63:0] $end
$var wire 64 ] f_valP [63:0] $end
$var wire 1 ^ f_instr_valid $end
$var wire 1 _ f_imem_error $end
$var wire 64 ` d_valA [63:0] $end
$var wire 64 a d_valB [63:0] $end
$var wire 4 b d_srcA [3:0] $end
$var wire 4 c d_srcB [3:0] $end
$var wire 4 d d_dstE [3:0] $end
$var wire 4 e d_dstM [3:0] $end
$var wire 64 f e_valE [63:0] $end
$var wire 1 g e_Cnd $end
$var wire 4 h e_dstE [3:0] $end
$var wire 64 i m_valM [63:0] $end
$var wire 1 j m_dmem_error $end
$var wire 2 k w_stat [1:0] $end
$var reg 2 l cpu_stat [1:0] $end
$var wire 1 m F_stall $end
$var wire 1 n F_bubble $end
$var wire 1 o D_stall $end
$var wire 1 p D_bubble $end
$var wire 1 q E_bubble $end
$var wire 1 r M_bubble $end
$var wire 1 s W_stall $end
$var wire 2 t forwardA [1:0] $end
$var wire 2 u forwardB [1:0] $end

$scope module pc_select $end
$var wire 1 * clk_i $end
$var wire 1 + rst_n_i $end
$var wire 4 E M_icode [3:0] $end
$var wire 1 K M_Cnd $end
$var wire 64 F M_valA [63:0] $end
$var wire 64 H M_valP [63:0] $end
$var wire 64 Q W_valM [63:0] $end
$var wire 64 - F_predPC [63:0] $end
$var wire 1 m F_stall $end
$var wire 2 v stat_i [1:0] $end
$var reg 64 w PC_o [63:0] $end
$var reg 64 x new_PC [63:0] $end
$upscope $end


$scope module fetch_stage $end
$var wire 64 , PC_i [63:0] $end
$var wire 64 W PC_o [63:0] $end
$var wire 4 X icode_o [3:0] $end
$var wire 4 Y ifun_o [3:0] $end
$var wire 4 Z rA_o [3:0] $end
$var wire 4 [ rB_o [3:0] $end
$var wire 64 \ valC_o [63:0] $end
$var wire 64 ] valP_o [63:0] $end
$var wire 1 ^ instr_valid_o $end
$var wire 1 _ imem_error_o $end
$var wire 80 y instr [79:0] $end
$var wire 1 z need_regids $end
$var wire 1 { need_valC $end
$var wire 1 | valid_ifun $end
$upscope $end


$scope module if_id $end
$var wire 1 * clk_i $end
$var wire 1 + rst_n_i $end
$var wire 1 o stall_i $end
$var wire 1 p bubble_i $end
$var wire 64 W PC_i [63:0] $end
$var wire 4 X icode_i [3:0] $end
$var wire 4 Y ifun_i [3:0] $end
$var wire 4 Z rA_i [3:0] $end
$var wire 4 [ rB_i [3:0] $end
$var wire 64 \ valC_i [63:0] $end
$var wire 64 ] valP_i [63:0] $end
$var wire 1 ^ instr_valid_i $end
$var wire 1 _ imem_error_i $end
$var reg 64 } PC_o [63:0] $end
$var reg 4 ~ icode_o [3:0] $end
$var reg 4 "! ifun_o [3:0] $end
$var reg 4 "" rA_o [3:0] $end
$var reg 4 "# rB_o [3:0] $end
$var reg 64 "$ valC_o [63:0] $end
$var reg 64 "% valP_o [63:0] $end
$var reg 1 "& instr_valid_o $end
$var reg 1 "' imem_error_o $end
$upscope $end


$scope module decode_stage $end
$var wire 1 * clk_i $end
$var wire 1 + rst_n_i $end
$var wire 4 / icode_i [3:0] $end
$var wire 4 1 rA_i [3:0] $end
$var wire 4 2 rB_i [3:0] $end
$var wire 4 R W_dstE [3:0] $end
$var wire 4 S W_dstM [3:0] $end
$var wire 64 P W_valE [63:0] $end
$var wire 64 Q W_valM [63:0] $end
$var wire 64 ` valA_o [63:0] $end
$var wire 64 a valB_o [63:0] $end
$var reg 4 "( srcA_o [3:0] $end
$var reg 4 ") srcB_o [3:0] $end
$var reg 4 "* dstE_o [3:0] $end
$var reg 4 "+ dstM_o [3:0] $end
$var integer 32 ", i $end
$upscope $end


$scope module id_ex $end
$var wire 1 * clk_i $end
$var wire 1 + rst_n_i $end
$var wire 1 "- stall_i $end
$var wire 1 q bubble_i $end
$var wire 64 . PC_i [63:0] $end
$var wire 4 / icode_i [3:0] $end
$var wire 4 0 ifun_i [3:0] $end
$var wire 64 ` valA_i [63:0] $end
$var wire 64 a valB_i [63:0] $end
$var wire 64 3 valC_i [63:0] $end
$var wire 64 4 valP_i [63:0] $end
$var wire 4 d dstE_i [3:0] $end
$var wire 4 e dstM_i [3:0] $end
$var wire 4 b srcA_i [3:0] $end
$var wire 4 c srcB_i [3:0] $end
$var wire 1 5 instr_valid_i $end
$var wire 1 6 imem_error_i $end
$var reg 64 ". PC_o [63:0] $end
$var reg 4 "/ icode_o [3:0] $end
$var reg 4 "0 ifun_o [3:0] $end
$var reg 64 "1 valA_o [63:0] $end
$var reg 64 "2 valB_o [63:0] $end
$var reg 64 "3 valC_o [63:0] $end
$var reg 64 "4 valP_o [63:0] $end
$var reg 4 "5 dstE_o [3:0] $end
$var reg 4 "6 dstM_o [3:0] $end
$var reg 4 "7 srcA_o [3:0] $end
$var reg 4 "8 srcB_o [3:0] $end
$var reg 1 "9 instr_valid_o $end
$var reg 1 ": imem_error_o $end
$upscope $end


$scope module execute_stage $end
$var wire 1 * clk_i $end
$var wire 1 + rst_n_i $end
$var wire 4 8 icode_i [3:0] $end
$var wire 4 9 ifun_i [3:0] $end
$var wire 64 : valA_i [63:0] $end
$var wire 64 ; valB_i [63:0] $end
$var wire 64 < valC_i [63:0] $end
$var wire 4 > dstE_i [3:0] $end
$var wire 2 t forwardA_i [1:0] $end
$var wire 2 u forwardB_i [1:0] $end
$var wire 64 G M_valE [63:0] $end
$var wire 64 Q W_valM [63:0] $end
$var wire 64 P W_valE [63:0] $end
$var reg 64 "; valE_o [63:0] $end
$var wire 1 g Cnd_o $end
$var wire 4 h dstE_o [3:0] $end
$var reg 1 "< ZF $end
$var reg 1 "= SF $end
$var reg 1 "> OF $end
$var wire 64 "? aluA [63:0] $end
$var wire 64 "@ aluB [63:0] $end
$var wire 64 "A alu_out [63:0] $end
$var wire 1 "B cond $end
$upscope $end


$scope module ex_mem $end
$var wire 1 * clk_i $end
$var wire 1 + rst_n_i $end
$var wire 1 "C stall_i $end
$var wire 1 r bubble_i $end
$var wire 64 7 PC_i [63:0] $end
$var wire 4 8 icode_i [3:0] $end
$var wire 64 : valA_i [63:0] $end
$var wire 64 f valE_i [63:0] $end
$var wire 64 = valP_i [63:0] $end
$var wire 4 h dstE_i [3:0] $end
$var wire 4 ? dstM_i [3:0] $end
$var wire 1 g Cnd_i $end
$var wire 1 B instr_valid_i $end
$var wire 1 C imem_error_i $end
$var reg 64 "D PC_o [63:0] $end
$var reg 4 "E icode_o [3:0] $end
$var reg 64 "F valA_o [63:0] $end
$var reg 64 "G valE_o [63:0] $end
$var reg 64 "H valP_o [63:0] $end
$var reg 4 "I dstE_o [3:0] $end
$var reg 4 "J dstM_o [3:0] $end
$var reg 1 "K Cnd_o $end
$var reg 1 "L instr_valid_o $end
$var reg 1 "M imem_error_o $end
$upscope $end


$scope module memory_stage $end
$var wire 1 * clk_i $end
$var wire 1 + rst_n_i $end
$var wire 4 E icode_i [3:0] $end
$var wire 64 F valA_i [63:0] $end
$var wire 64 G valE_i [63:0] $end
$var wire 64 H valP_i [63:0] $end
$var reg 64 "N valM_o [63:0] $end
$var wire 1 j dmem_error_o $end
$var reg 1 "O mem_read $end
$var reg 1 "P mem_write $end
$var reg 64 "Q mem_addr [63:0] $end
$var reg 64 "R mem_data_in [63:0] $end
$var integer 32 "S i $end
$upscope $end


$scope module mem_wb $end
$var wire 1 * clk_i $end
$var wire 1 + rst_n_i $end
$var wire 1 s stall_i $end
$var wire 1 "T bubble_i $end
$var wire 64 D PC_i [63:0] $end
$var wire 4 E icode_i [3:0] $end
$var wire 64 G valE_i [63:0] $end
$var wire 64 i valM_i [63:0] $end
$var wire 4 I dstE_i [3:0] $end
$var wire 4 J dstM_i [3:0] $end
$var wire 1 L instr_valid_i $end
$var wire 1 M imem_error_i $end
$var wire 1 j dmem_error_i $end
$var reg 64 "U PC_o [63:0] $end
$var reg 4 "V icode_o [3:0] $end
$var reg 64 "W valE_o [63:0] $end
$var reg 64 "X valM_o [63:0] $end
$var reg 4 "Y dstE_o [3:0] $end
$var reg 4 "Z dstM_o [3:0] $end
$var reg 1 "[ instr_valid_o $end
$var reg 1 "\ imem_error_o $end
$var reg 1 "] dmem_error_o $end
$upscope $end


$scope module writeback_stage $end
$var wire 4 O icode_i [3:0] $end
$var wire 1 T instr_valid_i $end
$var wire 1 U imem_error_i $end
$var wire 1 V dmem_error_i $end
$var reg 2 "^ stat_o [1:0] $end
$upscope $end


$scope module hazard_ctrl $end
$var wire 4 / D_icode [3:0] $end
$var wire 4 8 E_icode [3:0] $end
$var wire 4 > E_dstE [3:0] $end
$var wire 4 ? E_dstM [3:0] $end
$var wire 4 @ E_srcA [3:0] $end
$var wire 4 A E_srcB [3:0] $end
$var wire 4 E M_icode [3:0] $end
$var wire 4 I M_dstE [3:0] $end
$var wire 4 J M_dstM [3:0] $end
$var wire 1 K M_Cnd $end
$var wire 4 O W_icode [3:0] $end
$var wire 4 R W_dstE [3:0] $end
$var wire 4 S W_dstM [3:0] $end
$var wire 4 b d_srcA [3:0] $end
$var wire 4 c d_srcB [3:0] $end
$var wire 1 m F_stall $end
$var wire 1 n F_bubble $end
$var wire 1 o D_stall $end
$var wire 1 p D_bubble $end
$var wire 1 q E_bubble $end
$var wire 1 r M_bubble $end
$var wire 1 s W_stall $end
$var wire 1 "_ load_use_hazard $end
$var wire 1 "` mispredicted_branch $end
$var wire 1 "a ret_hazard $end
$upscope $end


$scope module forward_unit $end
$var wire 4 @ E_srcA [3:0] $end
$var wire 4 A E_srcB [3:0] $end
$var wire 4 I M_dstE [3:0] $end
$var wire 4 J M_dstM [3:0] $end
$var wire 4 R W_dstE [3:0] $end
$var wire 4 S W_dstM [3:0] $end
$var reg 2 "b forwardA [1:0] $end
$var reg 2 "c forwardB [1:0] $end
$upscope $end

$upscope $end

$upscope $end

$enddefinitions $end

#0
$dumpvars
0"K
0p
06
15
0o
0q
0C
1B
0n
0m
0K
0r
0M
1L
0">
0"=
0V
0U
1T
0s
1"<
0"T
0!
1"B
0"]
1g
0"M
1"L
0"C
0_
1^
0":
1"9
0"'
1"&
0"_
0j
0"O
0"\
1"[
0"P
0"`
1z
1{
0"a
0"
0+
0"-
1|
b0000000000000000000000000000000000000000000000000000000000000000 .
b0000 &
b0000 0
b1111 1
b1111 2
b0000000000000000000000000000000000000000000000000000000000000000 3
b0000000000000000000000000000000000000000000000000000000000000000 4
b0000000000000000000000000000000000000000000000000000000000000000 7
b1111 >
b1111 ?
b0000 '
b0000 9
b1111 @
b1111 A
b0000000000000000000000000000000000000000000000000000000000000000 :
b0000000000000000000000000000000000000000000000000000000000000000 ;
b0000000000000000000000000000000000000000000000000000000000000000 <
b0000000000000000000000000000000000000000000000000000000000000000 =
b0000000000000000000000000000000000000000000000000000000000000000 ,
b0011 %
b0000000000000000000000000000000000000000000000000000000000001010 -
b0000000000000000000000000000000000000000000000000000000000000000 D
b1111 I
b1111 J
b0000 (
b0000000000000000000000000000000000000000000000000000000000000000 F
b0000000000000000000000000000000000000000000000000000000000000000 G
b0000000000000000000000000000000000000000000000000000000000000000 H
b0000000000000000000000000000000000000000000000000000000000000000 $
b0000000000000000000000000000000000000000000000000000000000000000 N
b1111 R
b1111 S
b0000 )
b0000000000000000000000000000000000000000000000000000000000000000 P
b0000000000000000000000000000000000000000000000000000000000000000 Q
b0000000000000000000000000000000000000000000000000000000000000000 "?
b0000000000000000000000000000000000000000000000000000000000000000 "@
b0000000000000000000000000000000000000000000000000000000000000000 "A
b0000 /
b0000 8
b0000 E
b0000 O
b00 l
b1111 d
b1111 e
b1111 b
b1111 c
b0000000000000000000000000000000000000000000000000000000000000000 `
b0000000000000000000000000000000000000000000000000000000000000000 a
b1111 "*
b1111 "+
b00000000000000000000000000001111 ",
b1111 "(
b1111 ")
b1111 "5
b1111 "6
b1111 h
b0000000000000000000000000000000000000000000000000000000000000000 f
b0000000000000000000000000000000000000000000000000000000000000000 "D
b1111 "I
b1111 "J
b0000 "E
b0000000000000000000000000000000000000000000000000000000000000000 "F
b0000000000000000000000000000000000000000000000000000000000000000 "G
b0000000000000000000000000000000000000000000000000000000000000000 "H
b0000000000000000000000000000000000000000000000000000000000000000 W
b1111 Z
b0000 [
b0000000000000000000000000000000000000000000000000000000000000011 \
b0000000000000000000000000000000000000000000000000000000000001010 ]
b00 t
b00 u
b00 "b
b00 "c
b00000000000000000000000100000000 "S
b0000 ~
b0000000000000000000000000000000000000000000000000000000000000000 ".
b0000 "/
b0000 "0
b0000000000000000000000000000000000000000000000000000000000000000 "3
b0000000000000000000000000000000000000000000000000000000000000000 "4
b0000000000000000000000000000000000000000000000000000000000000000 }
b0000 "!
b00000000000000000000000000000000000000000000000000000000000000111111000000110000 y
b0000000000000000000000000000000000000000000000000000000000000000 i
b0000000000000000000000000000000000000000000000000000000000000000 "Q
b0000000000000000000000000000000000000000000000000000000000000000 "R
b0000000000000000000000000000000000000000000000000000000000000000 "U
b1111 "Y
b1111 "Z
b0000 "V
b0000000000000000000000000000000000000000000000000000000000000000 "W
b0000000000000000000000000000000000000000000000000000000000000000 "N
b0000000000000000000000000000000000000000000000000000000000001010 x
b0000000000000000000000000000000000000000000000000000000000000000 w
b1111 ""
b1111 "#
b1111 "7
b1111 "8
b00 #
b00 v
bxxxx X
bxxxx Y
b0000000000000000000000000000000000000000000000000000000000000000 "1
b0000000000000000000000000000000000000000000000000000000000000000 "2
b0000000000000000000000000000000000000000000000000000000000000000 "$
b0000000000000000000000000000000000000000000000000000000000000000 ";
b0000000000000000000000000000000000000000000000000000000000000000 "X
b0000000000000000000000000000000000000000000000000000000000000000 "%
b00 k
b00 "^
0*
$end
b0011 X
b0000 Y
#5000
1!
1*
#10000
1"
1+
0!
0*
#15000
1!
1*
b0000000000000000000000000000000000000000000000000000000000001010 w
b0000000000000000000000000000000000000000000000000000000000001010 ,
b0000000000000000000000000000000000000000000000000000000000001010 W
b0000000000000000000000000000000000000000000000000000000000001010 $
b0011 ~
b0011 /
b0011 &
b0000 "#
b0000 2
b0000000000000000000000000000000000000000000000000000000000000011 "$
b0000000000000000000000000000000000000000000000000000000000000011 3
b0000000000000000000000000000000000000000000000000000000000001010 "%
b0000000000000000000000000000000000000000000000000000000000001010 4
1"K
1K
b00000000000000000000000000000000000000000000000000000000000001011111001100110000 y
b0000000000000000000000000000000000000000000000000000000000000101 \
b0011 [
b0000000000000000000000000000000000000000000000000000000000010100 ]
b0000000000000000000000000000000000000000000000000000000000010100 -
b0000 ")
b0000 c
b0000 "*
b0000 d
b0000000000000000000000000000000000000000000000000000000000010100 x
#20000
0!
0*
#25000
1!
1*
b0000000000000000000000000000000000000000000000000000000000010100 w
b0000000000000000000000000000000000000000000000000000000000010100 ,
b0000000000000000000000000000000000000000000000000000000000010100 W
b0000000000000000000000000000000000000000000000000000000000010100 $
b0000000000000000000000000000000000000000000000000000000000001010 }
b0000000000000000000000000000000000000000000000000000000000001010 .
b0011 "#
b0011 2
b0000000000000000000000000000000000000000000000000000000000000101 "$
b0000000000000000000000000000000000000000000000000000000000000101 3
b0000000000000000000000000000000000000000000000000000000000010100 "%
b0000000000000000000000000000000000000000000000000000000000010100 4
b0011 "/
b0011 8
b0011 '
b0000000000000000000000000000000000000000000000000000000000000011 "3
b0000000000000000000000000000000000000000000000000000000000000011 <
b0000000000000000000000000000000000000000000000000000000000001010 "4
b0000000000000000000000000000000000000000000000000000000000001010 =
b0000 "5
b0000 >
b0000 "8
b0000 A
bxxxxxxxxxxxxxxxxxxxxxxxxxxxxxxxxxxxxxxxxxxxxxxxxxxxxxxxx00010000 \
bxxxxxxxxxxxxxxxxxxxxxxxxxxxxxxxxxxxxxxxxxxxxxxxxxxxxxxxx000100000011000001100000 y
b0110 X
b0110 %
b0011 Z
b0000 [
b0000000000000000000000000000000000000000000000000000000000011110 ]
b0000000000000000000000000000000000000000000000000000000000011110 -
b0011 ")
b0011 c
b0011 "*
b0011 d
b0000000000000000000000000000000000000000000000000000000000000011 ";
b0000000000000000000000000000000000000000000000000000000000000011 f
b0000 h
1|
0{
b0000000000000000000000000000000000000000000000000000000000011110 x
b0000000000000000000000000000000000000000000000000000000000010110 ]
b0000000000000000000000000000000000000000000000000000000000010110 -
b0000000000000000000000000000000000000000000000000000000000000000 \
b0000000000000000000000000000000000000000000000000000000000010110 x
#30000
0!
0*
#35000
1!
1*
b0000000000000000000000000000000000000000000000000000000000010110 w
b0000000000000000000000000000000000000000000000000000000000010110 ,
b0000000000000000000000000000000000000000000000000000000000010110 W
b0000000000000000000000000000000000000000000000000000000000010110 $
b0000000000000000000000000000000000000000000000000000000000010100 }
b0000000000000000000000000000000000000000000000000000000000010100 .
b0110 ~
b0110 /
b0110 &
b0011 ""
b0011 1
b0000 "#
b0000 2
b0000000000000000000000000000000000000000000000000000000000000000 "$
b0000000000000000000000000000000000000000000000000000000000000000 3
b0000000000000000000000000000000000000000000000000000000000010110 "%
b0000000000000000000000000000000000000000000000000000000000010110 4
b0000000000000000000000000000000000000000000000000000000000001010 ".
b0000000000000000000000000000000000000000000000000000000000001010 7
b0000000000000000000000000000000000000000000000000000000000000101 "3
b0000000000000000000000000000000000000000000000000000000000000101 <
b0000000000000000000000000000000000000000000000000000000000010100 "4
b0000000000000000000000000000000000000000000000000000000000010100 =
b0011 "5
b0011 >
b0011 "8
b0011 A
b0011 "E
b0011 E
b0011 (
b0000000000000000000000000000000000000000000000000000000000000011 "G
b0000000000000000000000000000000000000000000000000000000000000011 G
b0000000000000000000000000000000000000000000000000000000000001010 "H
b0000000000000000000000000000000000000000000000000000000000001010 H
b0000 "I
b0000 I
bxxxxxxxxxxxxxxxxxxxxxxxxxxxxxxxxxxxxxxxxxxxxxxxxxxxxxxxxxxxxxxxxxxxxxxxx00010000 y
b0001 X
b0001 %
bxxxx Z
bxxxx [
b0000000000000000000000000000000000000000000000000000000000011000 ]
b0000000000000000000000000000000000000000000000000000000000011000 -
b0000 ")
b0000 c
b0011 "(
b0011 b
b0000 "*
b0000 d
b0000000000000000000000000000000000000000000000000000000000000101 ";
b0000000000000000000000000000000000000000000000000000000000000101 f
b0011 h
b0000000000000000000000000000000000000000000000000000000000011000 x
0z
b0000000000000000000000000000000000000000000000000000000000010111 ]
b0000000000000000000000000000000000000000000000000000000000010111 -
b1111 [
b1111 Z
b0000000000000000000000000000000000000000000000000000000000010111 x
#40000
0!
0*
#45000
1!
1*
b0000000000000000000000000000000000000000000000000000000000010111 w
b0000000000000000000000000000000000000000000000000000000000010111 ,
b0000000000000000000000000000000000000000000000000000000000010111 W
b0000000000000000000000000000000000000000000000000000000000010111 $
b0000000000000000000000000000000000000000000000000000000000010110 }
b0000000000000000000000000000000000000000000000000000000000010110 .
b0001 ~
b0001 /
b0001 &
b1111 ""
b1111 1
b1111 "#
b1111 2
b0000000000000000000000000000000000000000000000000000000000010111 "%
b0000000000000000000000000000000000000000000000000000000000010111 4
b0000000000000000000000000000000000000000000000000000000000010100 ".
b0000000000000000000000000000000000000000000000000000000000010100 7
b0110 "/
b0110 8
b0110 '
b0000000000000000000000000000000000000000000000000000000000000000 "3
b0000000000000000000000000000000000000000000000000000000000000000 <
b0000000000000000000000000000000000000000000000000000000000010110 "4
b0000000000000000000000000000000000000000000000000000000000010110 =
b0000 "5
b0000 >
b0011 "7
b0011 @
b0000 "8
b0000 A
b0000000000000000000000000000000000000000000000000000000000001010 "D
b0000000000000000000000000000000000000000000000000000000000001010 D
b0000000000000000000000000000000000000000000000000000000000000101 "G
b0000000000000000000000000000000000000000000000000000000000000101 G
b0000000000000000000000000000000000000000000000000000000000010100 "H
b0000000000000000000000000000000000000000000000000000000000010100 H
b0011 "I
b0011 I
b0011 "V
b0011 O
b0011 )
b0000000000000000000000000000000000000000000000000000000000000011 "W
b0000000000000000000000000000000000000000000000000000000000000011 P
b0000 "Y
b0000 R
b0000000000000000000000000000000000000000000000000000000000011000 ]
b0000000000000000000000000000000000000000000000000000000000011000 -
bxxxxxxxxxxxxxxxxxxxxxxxxxxxxxxxxxxxxxxxxxxxxxxxxxxxxxxxxxxxxxxxxxxxxxxxxxxxxxxxx y
bxxxx X
bxxxx Y
x^
bxxxx %
b1111 ")
b1111 c
b1111 "(
b1111 b
b1111 "*
b1111 d
b0000000000000000000000000000000000000000000000000000000000000000 ";
b0000000000000000000000000000000000000000000000000000000000000000 f
b0000 h
b01 "b
b01 t
b11 "c
b11 u
b0000000000000000000000000000000000000000000000000000000000011000 x
x|
xz
x{
b0000000000000000000000000000000000000000000000000000000000000101 "?
b0000000000000000000000000000000000000000000000000000000000000011 "@
bxxxxxxxxxxxxxxxxxxxxxxxxxxxxxxxxxxxxxxxxxxxxxxxxxxxxxxxxxxxxxxxx ]
bxxxxxxxxxxxxxxxxxxxxxxxxxxxxxxxxxxxxxxxxxxxxxxxxxxxxxxxxxxxxxxxx -
bxxxx [
bxxxx Z
bxxxxxxxxxxxxxxxxxxxxxxxxxxxxxxxxxxxxxxxxxxxxxxxxxxxxxxxxxxxxxxxx \
b0000000000000000000000000000000000000000000000000000000000001000 "A
bxxxxxxxxxxxxxxxxxxxxxxxxxxxxxxxxxxxxxxxxxxxxxxxxxxxxxxxxxxxxxxxx x
b0000000000000000000000000000000000000000000000000000000000001000 ";
b0000000000000000000000000000000000000000000000000000000000001000 f
#50000
0!
0*
#55000
1!
1*
bxxxxxxxxxxxxxxxxxxxxxxxxxxxxxxxxxxxxxxxxxxxxxxxxxxxxxxxxxxxxxxxx w
bxxxxxxxxxxxxxxxxxxxxxxxxxxxxxxxxxxxxxxxxxxxxxxxxxxxxxxxxxxxxxxxx ,
bxxxxxxxxxxxxxxxxxxxxxxxxxxxxxxxxxxxxxxxxxxxxxxxxxxxxxxxxxxxxxxxx W
x_
bxxxxxxxxxxxxxxxxxxxxxxxxxxxxxxxxxxxxxxxxxxxxxxxxxxxxxxxxxxxxxxxx $
b0000000000000000000000000000000000000000000000000000000000010111 }
b0000000000000000000000000000000000000000000000000000000000010111 .
bxxxx ~
bxxxx /
bxxxx &
bxxxx "!
bxxxx 0
bxxxx ""
bxxxx 1
bxxxx "#
bxxxx 2
bxxxxxxxxxxxxxxxxxxxxxxxxxxxxxxxxxxxxxxxxxxxxxxxxxxxxxxxxxxxxxxxx "$
bxxxxxxxxxxxxxxxxxxxxxxxxxxxxxxxxxxxxxxxxxxxxxxxxxxxxxxxxxxxxxxxx 3
bxxxxxxxxxxxxxxxxxxxxxxxxxxxxxxxxxxxxxxxxxxxxxxxxxxxxxxxxxxxxxxxx "%
bxxxxxxxxxxxxxxxxxxxxxxxxxxxxxxxxxxxxxxxxxxxxxxxxxxxxxxxxxxxxxxxx 4
x"&
x5
b0000000000000000000000000000000000000000000000000000000000010110 ".
b0000000000000000000000000000000000000000000000000000000000010110 7
b0001 "/
b0001 8
b0001 '
b0000000000000000000000000000000000000000000000000000000000010111 "4
b0000000000000000000000000000000000000000000000000000000000010111 =
b1111 "5
b1111 >
b1111 "7
b1111 @
b1111 "8
b1111 A
0"<
b0000000000000000000000000000000000000000000000000000000000010100 "D
b0000000000000000000000000000000000000000000000000000000000010100 D
b0110 "E
b0110 E
b0110 (
b0000000000000000000000000000000000000000000000000000000000001000 "G
b0000000000000000000000000000000000000000000000000000000000001000 G
b0000000000000000000000000000000000000000000000000000000000010110 "H
b0000000000000000000000000000000000000000000000000000000000010110 H
b0000 "I
b0000 I
b0000000000000000000000000000000000000000000000000000000000001010 "U
b0000000000000000000000000000000000000000000000000000000000001010 N
b0000000000000000000000000000000000000000000000000000000000000101 "W
b0000000000000000000000000000000000000000000000000000000000000101 P
b0011 "Y
b0011 R
x"a
xo
xm
b0000000000000000000000000000000000000000000000000000000000000000 ";
b0000000000000000000000000000000000000000000000000000000000000000 f
b1111 h
b00 "b
b00 t
b00 "c
b00 u
b0000000000000000000000000000000000000000000000000000000000000000 "?
b0000000000000000000000000000000000000000000000000000000000000000 "@
b0000000000000000000000000000000000000000000000000000000000000000 "A
#60000
0!
0*
#65000
1!
1*
b0000000000000000000000000000000000000000000000000000000000010111 ".
b0000000000000000000000000000000000000000000000000000000000010111 7
bxxxx "/
bxxxx 8
bxxxx '
bxxxx "0
bxxxx 9
bxxxxxxxxxxxxxxxxxxxxxxxxxxxxxxxxxxxxxxxxxxxxxxxxxxxxxxxxxxxxxxxx "3
bxxxxxxxxxxxxxxxxxxxxxxxxxxxxxxxxxxxxxxxxxxxxxxxxxxxxxxxxxxxxxxxx <
bxxxxxxxxxxxxxxxxxxxxxxxxxxxxxxxxxxxxxxxxxxxxxxxxxxxxxxxxxxxxxxxx "4
bxxxxxxxxxxxxxxxxxxxxxxxxxxxxxxxxxxxxxxxxxxxxxxxxxxxxxxxxxxxxxxxx =
x"9
xB
b0000000000000000000000000000000000000000000000000000000000010110 "D
b0000000000000000000000000000000000000000000000000000000000010110 D
b0001 "E
b0001 E
b0001 (
b0000000000000000000000000000000000000000000000000000000000000000 "G
b0000000000000000000000000000000000000000000000000000000000000000 G
b0000000000000000000000000000000000000000000000000000000000010111 "H
b0000000000000000000000000000000000000000000000000000000000010111 H
b1111 "I
b1111 I
b0000000000000000000000000000000000000000000000000000000000010100 "U
b0000000000000000000000000000000000000000000000000000000000010100 N
b0110 "V
b0110 O
b0110 )
b0000000000000000000000000000000000000000000000000000000000001000 "W
b0000000000000000000000000000000000000000000000000000000000001000 P
b0000 "Y
b0000 R
x"B
xg
#70000
0!
0*
#75000
1!
1*
b0000000000000000000000000000000000000000000000000000000000010111 "D
b0000000000000000000000000000000000000000000000000000000000010111 D
bxxxx "E
bxxxx E
bxxxx (
bxxxxxxxxxxxxxxxxxxxxxxxxxxxxxxxxxxxxxxxxxxxxxxxxxxxxxxxxxxxxxxxx "H
bxxxxxxxxxxxxxxxxxxxxxxxxxxxxxxxxxxxxxxxxxxxxxxxxxxxxxxxxxxxxxxxx H
x"K
xK
x"`
xp
x"L
xL
b0000000000000000000000000000000000000000000000000000000000010110 "U
b0000000000000000000000000000000000000000000000000000000000010110 N
b0001 "V
b0001 O
b0001 )
b0000000000000000000000000000000000000000000000000000000000000000 "W
b0000000000000000000000000000000000000000000000000000000000000000 P
b1111 "Y
b1111 R
xq
b01 "^
b01 k
#80000
0!
0*
#85000
1!
1*
b01 l
b01 v
b01 #
b0000000000000000000000000000000000000000000000000000000000010111 "U
b0000000000000000000000000000000000000000000000000000000000010111 N
bxxxx "V
bxxxx O
bxxxx )
x"[
xT
b00 "^
b00 k
